{
	"Key": "Value",
	"Collection": [
		"1",
		"2",
		"3",
		"4"
	],
	"TestObject": {
		"Name": "Hans Paul",
		"Number": 5
	},
	"ObjectCollection": [
		{
			"Name": "Hans Paul",
			"Number": "5"
		},
		{
			"Name": "Heinz Gustav",
			"Number": "10"
		},
		{
			"Name": "Some other name",
			"Number": "42"
		}
	]
}